{
  "env": {
    "SHELL": "/bin/bash",
    "TERM": "xterm"
  },
  "duration": 168.222094,
  "stdout": [
    [
      0.029569,
      "\u001b]0;root@kube-ansible-1:~\u0007\u001b[?1034h[root@kube-ansible-1 ~]# "
    ],
    [
      10.620432,
      "$"
    ],
    [
      0.171237,
      "$"
    ],
    [
      0.160703,
      "$"
    ],
    [
      0.739662,
      "\b\u001b[K"
    ],
    [
      0.530048,
      "\b\u001b[K"
    ],
    [
      0.03739,
      "\b\u001b[K"
    ],
    [
      0.037956,
      "\u0007"
    ],
    [
      0.036973,
      "\u0007"
    ],
    [
      0.956263,
      "#"
    ],
    [
      0.16611,
      "#"
    ],
    [
      0.165715,
      "#"
    ],
    [
      0.557576,
      "c"
    ],
    [
      0.325191,
      "r"
    ],
    [
      0.171354,
      "e"
    ],
    [
      0.048253,
      "a"
    ],
    [
      0.224857,
      "t"
    ],
    [
      0.171306,
      "e"
    ],
    [
      4.423404,
      " "
    ],
    [
      0.354722,
      "a"
    ],
    [
      0.133981,
      "u"
    ],
    [
      0.344041,
      "t"
    ],
    [
      0.139286,
      "h"
    ],
    [
      2.229649,
      " "
    ],
    [
      2.518878,
      "l"
    ],
    [
      0.249599,
      "o"
    ],
    [
      0.168467,
      "g"
    ],
    [
      0.14429,
      "i"
    ],
    [
      0.091968,
      "n"
    ],
    [
      1.177839,
      " "
    ],
    [
      0.223511,
      "i"
    ],
    [
      0.080406,
      "n"
    ],
    [
      0.107031,
      "f"
    ],
    [
      0.160639,
      "o"
    ],
    [
      0.157675,
      "r"
    ],
    [
      0.394216,
      "m"
    ],
    [
      0.130723,
      "a"
    ],
    [
      0.300846,
      "t"
    ],
    [
      0.112626,
      "i"
    ],
    [
      0.117456,
      "o"
    ],
    [
      0.091253,
      "n"
    ],
    [
      1.285026,
      "#"
    ],
    [
      0.314754,
      "#"
    ],
    [
      0.552721,
      "#"
    ],
    [
      0.286206,
      "\r\n\u001b]0;root@kube-ansible-1:~\u0007[root@kube-ansible-1 ~]# "
    ],
    [
      2.622584,
      "h"
    ],
    [
      0.1494,
      "t"
    ],
    [
      0.161912,
      "p"
    ],
    [
      0.146119,
      "a"
    ],
    [
      1.360009,
      "s"
    ],
    [
      0.16746,
      "s"
    ],
    [
      0.179569,
      "w"
    ],
    [
      0.184767,
      "d"
    ],
    [
      0.117878,
      " "
    ],
    [
      0.190669,
      "-"
    ],
    [
      0.123118,
      "c"
    ],
    [
      0.069668,
      " "
    ],
    [
      0.211799,
      "a"
    ],
    [
      0.08567,
      "u"
    ],
    [
      0.156665,
      "t"
    ],
    [
      0.109778,
      "h"
    ],
    [
      0.134817,
      " "
    ],
    [
      0.196061,
      "a"
    ],
    [
      0.112232,
      "d"
    ],
    [
      0.160381,
      "m"
    ],
    [
      0.263067,
      "i"
    ],
    [
      0.043079,
      "n"
    ],
    [
      0.372002,
      "\r\n"
    ],
    [
      0.002127,
      "New password: "
    ],
    [
      5.543962,
      "\r\nRe-type new password: "
    ],
    [
      2.851129,
      "\r\nAdding password for user admin\r\n"
    ],
    [
      0.000406,
      "\u001b]0;root@kube-ansible-1:~\u0007[root@kube-ansible-1 ~]# "
    ],
    [
      2.450664,
      "k"
    ],
    [
      0.201987,
      "u"
    ],
    [
      0.189728,
      "b"
    ],
    [
      0.100464,
      "e"
    ],
    [
      0.243632,
      "c"
    ],
    [
      0.234421,
      "t"
    ],
    [
      0.151318,
      "l"
    ],
    [
      0.185405,
      " "
    ],
    [
      2.25492,
      "c"
    ],
    [
      1.137417,
      "\b\u001b[K"
    ],
    [
      0.53004,
      "\b\u001b[K"
    ],
    [
      0.037522,
      "\b\u001b[K"
    ],
    [
      0.037795,
      "\b\u001b[K"
    ],
    [
      0.03713,
      "\b\u001b[K"
    ],
    [
      0.037375,
      "\b\u001b[K"
    ],
    [
      0.037571,
      "\b\u001b[K"
    ],
    [
      0.040283,
      "\b\u001b[K"
    ],
    [
      0.035335,
      "\b\u001b[K"
    ],
    [
      0.036821,
      "\u0007"
    ],
    [
      0.038175,
      "\u0007"
    ],
    [
      0.036782,
      "\u0007"
    ],
    [
      0.037615,
      "\u0007"
    ],
    [
      0.037308,
      "\u0007"
    ],
    [
      0.037502,
      "\u0007"
    ],
    [
      0.77417,
      "#"
    ],
    [
      0.17126,
      "#"
    ],
    [
      0.16057,
      "#"
    ],
    [
      0.46584,
      " "
    ],
    [
      0.280398,
      "c"
    ],
    [
      1.117687,
      "r"
    ],
    [
      0.074984,
      "e"
    ],
    [
      0.198116,
      "a"
    ],
    [
      0.176642,
      "t"
    ],
    [
      0.130789,
      "e"
    ],
    [
      0.182214,
      " "
    ],
    [
      2.368435,
      "s"
    ],
    [
      0.296334,
      "e"
    ],
    [
      0.287743,
      "c"
    ],
    [
      0.268376,
      "r"
    ],
    [
      0.783131,
      "e"
    ],
    [
      0.160669,
      "t"
    ],
    [
      3.592543,
      " "
    ],
    [
      1.007036,
      "#"
    ],
    [
      0.178996,
      "#"
    ],
    [
      1.222551,
      "#"
    ],
    [
      0.732006,
      "\r\n\u001b]0;root@kube-ansible-1:~\u0007[root@kube-ansible-1 ~]# "
    ],
    [
      1.495898,
      "k"
    ],
    [
      0.198856,
      "u"
    ],
    [
      0.175615,
      "b"
    ],
    [
      0.10701,
      "e"
    ],
    [
      0.260568,
      "c"
    ],
    [
      0.230663,
      "t"
    ],
    [
      0.107185,
      "l"
    ],
    [
      0.148478,
      " "
    ],
    [
      0.219588,
      "c"
    ],
    [
      0.299864,
      "r"
    ],
    [
      0.488807,
      "e"
    ],
    [
      0.165799,
      "a"
    ],
    [
      0.216622,
      "t"
    ],
    [
      0.133798,
      "e"
    ],
    [
      0.220124,
      " "
    ],
    [
      0.202051,
      "s"
    ],
    [
      0.193233,
      "e"
    ],
    [
      0.236829,
      "c"
    ],
    [
      0.293217,
      "r"
    ],
    [
      0.276332,
      "e"
    ],
    [
      0.155262,
      "t"
    ],
    [
      0.155239,
      " "
    ],
    [
      0.202499,
      "g"
    ],
    [
      0.196502,
      "e"
    ],
    [
      0.167273,
      "n"
    ],
    [
      0.096307,
      "e"
    ],
    [
      0.283203,
      "r"
    ],
    [
      0.194781,
      "i"
    ],
    [
      0.207127,
      "c"
    ],
    [
      0.122442,
      " "
    ],
    [
      0.193741,
      "b"
    ],
    [
      0.153099,
      "a"
    ],
    [
      0.222194,
      "s"
    ],
    [
      0.08032,
      "i"
    ],
    [
      0.182452,
      "c"
    ],
    [
      0.195255,
      "-"
    ],
    [
      0.348756,
      "a"
    ],
    [
      0.099443,
      "u"
    ],
    [
      0.175947,
      "t"
    ],
    [
      0.103983,
      "h"
    ],
    [
      0.433619,
      " "
    ],
    [
      0.405034,
      "-"
    ],
    [
      0.129896,
      "-"
    ],
    [
      0.08784,
      "f"
    ],
    [
      0.629215,
      "r"
    ],
    [
      0.084651,
      "o"
    ],
    [
      0.096908,
      "m"
    ],
    [
      0.258069,
      "-"
    ],
    [
      0.157406,
      "f"
    ],
    [
      0.133929,
      "i"
    ],
    [
      0.222973,
      "l"
    ],
    [
      0.096968,
      "e"
    ],
    [
      0.277653,
      "="
    ],
    [
      0.779962,
      "a"
    ],
    [
      0.117961,
      "u"
    ],
    [
      0.19559,
      "th "
    ],
    [
      2.907079,
      "-"
    ],
    [
      0.253941,
      "n"
    ],
    [
      0.190761,
      " "
    ],
    [
      0.156282,
      "m"
    ],
    [
      0.188035,
      "o"
    ],
    [
      0.160075,
      "n"
    ],
    [
      0.376641,
      "i"
    ],
    [
      0.363539,
      "t"
    ],
    [
      0.123073,
      "o"
    ],
    [
      0.130194,
      "r"
    ],
    [
      0.144558,
      "i"
    ],
    [
      0.091087,
      "n"
    ],
    [
      0.153786,
      "g"
    ],
    [
      0.753334,
      "\r\n"
    ],
    [
      0.228152,
      "secret/basic-auth created\r\n"
    ],
    [
      0.002409,
      "\u001b]0;root@kube-ansible-1:~\u0007[root@kube-ansible-1 ~]# "
    ],
    [
      4.265876,
      "k"
    ],
    [
      0.202676,
      "u"
    ],
    [
      0.253243,
      "b"
    ],
    [
      0.188046,
      "e"
    ],
    [
      0.244045,
      "c"
    ],
    [
      0.220671,
      "t"
    ],
    [
      0.095933,
      "l"
    ],
    [
      0.140779,
      " "
    ],
    [
      0.545571,
      "g"
    ],
    [
      0.195254,
      "e"
    ],
    [
      0.064824,
      "t"
    ],
    [
      0.117335,
      " "
    ],
    [
      0.14462,
      "s"
    ],
    [
      0.217423,
      "e"
    ],
    [
      0.254276,
      "c"
    ],
    [
      0.261145,
      "r"
    ],
    [
      0.239758,
      "e"
    ],
    [
      0.16079,
      "t"
    ],
    [
      0.124363,
      " "
    ],
    [
      0.156624,
      "b"
    ],
    [
      0.117667,
      "a"
    ],
    [
      0.248879,
      "s"
    ],
    [
      0.106977,
      "i"
    ],
    [
      0.161309,
      "c"
    ],
    [
      0.128598,
      "-"
    ],
    [
      0.190281,
      "a"
    ],
    [
      0.09638,
      "u"
    ],
    [
      0.204126,
      "t"
    ],
    [
      0.096386,
      "h"
    ],
    [
      0.204381,
      " "
    ],
    [
      0.323674,
      "-"
    ],
    [
      1.676407,
      "o"
    ],
    [
      0.235621,
      " "
    ],
    [
      0.818976,
      "y"
    ],
    [
      0.17997,
      "a"
    ],
    [
      0.195914,
      "m"
    ],
    [
      0.216689,
      " "
    ],
    [
      0.646296,
      "\b\u001b[K"
    ],
    [
      0.258094,
      "l"
    ],
    [
      0.168951,
      " "
    ],
    [
      0.169648,
      "-"
    ],
    [
      0.25246,
      "n"
    ],
    [
      1.011687,
      " "
    ],
    [
      0.142297,
      "m"
    ],
    [
      0.181916,
      "o"
    ],
    [
      0.0589,
      "n"
    ],
    [
      0.117721,
      "i"
    ],
    [
      0.168951,
      "t"
    ],
    [
      0.128604,
      "o"
    ],
    [
      0.101687,
      "r"
    ],
    [
      0.139102,
      "i"
    ],
    [
      0.064304,
      "n"
    ],
    [
      0.12312,
      "g"
    ],
    [
      0.218942,
      "\r\n"
    ],
    [
      0.197869,
      "apiVersion: v1\r\ndata:\r\n  auth: YWRtaW46JGFwcjEkNmZCd3MyVFEkMVlDeFYxLi9WYWk0Qm10YU1zYS5DLgo=\r\nkind: Secret\r\nmetadata:\r\n  creationTimestamp: 2018-09-12T09:33:10Z\r\n  name: basic-auth\r\n  namespace: monitoring\r\n  resourceVersion: \"121719\"\r\n  selfLink: /api/v1/namespaces/monitoring/secrets/basic-auth\r\n  uid: dcfb2cbd-b66e-11e8-a7c3-00155d0016ab\r\ntype: Opaque\r\n"
    ],
    [
      0.002249,
      "\u001b]0;root@kube-ansible-1:~\u0007[root@kube-ansible-1 ~]# "
    ],
    [
      10.625124,
      "v"
    ],
    [
      0.091072,
      "i"
    ],
    [
      0.197733,
      " "
    ],
    [
      0.175775,
      "i"
    ],
    [
      0.085701,
      "n"
    ],
    [
      0.199846,
      "gress-monitoring.yml "
    ],
    [
      1.165197,
      "\r\n"
    ],
    [
      0.027103,
      "\u001b[?1049h\u001b[?1h\u001b=\u001b[1;22r\u001b[?12;25h\u001b[?12l\u001b[?25h\u001b[27m\u001b[m\u001b[H\u001b[2J\u001b[?25l\u001b[22;1H\"ingress-monitoring.yml\" 39L, 967C\u001b[1;1HapiVersion: extensions/v1beta1\r\nkind: Ingress\r\nmetadata:\r\n  name: ing-monitoring\r\n  namespace: monitoring\r\n  annotations:\r\n    nginx.ingress.kubernetes.io/auth-type: basic\r\n    nginx.ingress.kubernetes.io/auth-secret: basic-auth\r\n    nginx.ingress.kubernetes.io/auth-realm: \"Authentication Required\"\r\nspec:\r\n  rules:\r\n  - host: prometheus.192.168.1.51.nip.io\r\n    http:\u001b[14;7Hpaths:\u001b[15;7H- path: /\u001b[16;9Hbackend:\u001b[17;11HserviceName: prometheus\u001b[18;11HservicePort: 9090\r\n  - host: alertmanager.192.168.1.51.nip.io\r\n    http:\u001b[21;7Hpaths:\u001b[1;1H\u001b[?12l\u001b[?25h"
    ],
    [
      3.637142,
      "\u001b[?25l\u001b[22;1H\u001b[K\u001b[22;1H:\u001b[?12l\u001b[?25h"
    ],
    [
      0.45804,
      "q"
    ],
    [
      0.291444,
      "!"
    ],
    [
      0.214292,
      "\r\u001b[?25l\u001b[22;1H\u001b[K\u001b[22;1H\u001b[?1l\u001b>\u001b[?12l\u001b[?25h\u001b[?1049l\u001b]0;root@kube-ansible-1:~\u0007[root@kube-ansible-1 ~]# "
    ],
    [
      0.790069,
      "k"
    ],
    [
      0.235206,
      "u"
    ],
    [
      0.218983,
      "b"
    ],
    [
      0.117211,
      "e"
    ],
    [
      0.254734,
      "c"
    ],
    [
      0.236724,
      "t"
    ],
    [
      0.0803,
      "l"
    ],
    [
      0.107003,
      " "
    ],
    [
      0.30294,
      "c"
    ],
    [
      3.170701,
      "\b\u001b[K"
    ],
    [
      0.220186,
      "a"
    ],
    [
      0.101702,
      "p"
    ],
    [
      0.13718,
      "p"
    ],
    [
      0.21322,
      "l"
    ],
    [
      0.229891,
      "y"
    ],
    [
      0.133623,
      " "
    ],
    [
      0.136683,
      "-"
    ],
    [
      0.155408,
      "f"
    ],
    [
      0.101684,
      " "
    ],
    [
      0.128717,
      "i"
    ],
    [
      0.09627,
      "n"
    ],
    [
      0.112607,
      "gress-monitoring.yml "
    ],
    [
      1.16902,
      "\r\n"
    ],
    [
      0.748709,
      "ingress.extensions/ing-monitoring created\r\n"
    ],
    [
      0.006445,
      "\u001b]0;root@kube-ansible-1:~\u0007[root@kube-ansible-1 ~]# "
    ],
    [
      9.97537,
      "#"
    ],
    [
      0.166076,
      "#"
    ],
    [
      0.166149,
      "#"
    ],
    [
      0.376357,
      " "
    ],
    [
      0.248576,
      "t"
    ],
    [
      0.128514,
      "e"
    ],
    [
      0.221898,
      "s"
    ],
    [
      0.112414,
      "t"
    ],
    [
      0.085719,
      " "
    ],
    [
      0.206888,
      "f"
    ],
    [
      0.16599,
      "o"
    ],
    [
      0.113907,
      "r"
    ],
    [
      0.144702,
      " "
    ],
    [
      0.783868,
      "a"
    ],
    [
      0.51629,
      "\b\u001b[K"
    ],
    [
      0.241546,
      "b"
    ],
    [
      0.106992,
      "a"
    ],
    [
      0.214482,
      "s"
    ],
    [
      0.058686,
      "i"
    ],
    [
      0.213528,
      "c"
    ],
    [
      0.462536,
      "="
    ],
    [
      0.764491,
      "\b\u001b[K"
    ],
    [
      0.280929,
      "-"
    ],
    [
      0.568107,
      "a"
    ],
    [
      0.133983,
      "u"
    ],
    [
      0.170239,
      "t"
    ],
    [
      0.117845,
      "h"
    ],
    [
      0.860981,
      " "
    ],
    [
      0.304958,
      "#"
    ],
    [
      0.1876,
      "#"
    ],
    [
      0.128954,
      "#"
    ],
    [
      0.38676,
      "\r\n\u001b]0;root@kube-ansible-1:~\u0007[root@kube-ansible-1 ~]# "
    ],
    [
      0.608209,
      "c"
    ],
    [
      0.096417,
      "u"
    ],
    [
      0.153179,
      "r"
    ],
    [
      0.112422,
      "l"
    ],
    [
      0.165721,
      " "
    ],
    [
      0.132585,
      "-"
    ],
    [
      0.356358,
      "v"
    ],
    [
      0.263018,
      " "
    ],
    [
      2.265678,
      "h"
    ],
    [
      0.11944,
      "t"
    ],
    [
      0.146005,
      "t"
    ],
    [
      0.114594,
      "p"
    ],
    [
      0.745328,
      ":"
    ],
    [
      0.20951,
      "/"
    ],
    [
      0.148156,
      "/"
    ],
    [
      2.680831,
      "p"
    ],
    [
      0.13207,
      "r"
    ],
    [
      0.091127,
      "o"
    ],
    [
      0.202258,
      "m"
    ],
    [
      0.137261,
      "e"
    ],
    [
      0.832654,
      "t"
    ],
    [
      0.091082,
      "h"
    ],
    [
      0.197326,
      "e"
    ],
    [
      0.639595,
      "u"
    ],
    [
      0.185731,
      "s"
    ],
    [
      0.155944,
      "."
    ],
    [
      0.558929,
      "1"
    ],
    [
      0.112385,
      "9"
    ],
    [
      0.107257,
      "2"
    ],
    [
      0.165383,
      "."
    ],
    [
      0.09634,
      "1"
    ],
    [
      0.337229,
      "6"
    ],
    [
      0.272032,
      "8"
    ],
    [
      0.163851,
      "."
    ],
    [
      0.123175,
      "1"
    ],
    [
      0.123122,
      "."
    ],
    [
      0.313206,
      "5"
    ],
    [
      0.156972,
      "1"
    ],
    [
      0.208213,
      "."
    ],
    [
      0.446699,
      "n"
    ],
    [
      0.144667,
      "i"
    ],
    [
      0.139162,
      "p"
    ],
    [
      0.337968,
      "."
    ],
    [
      0.277522,
      "i"
    ],
    [
      0.117714,
      "o"
    ],
    [
      0.847093,
      "\r\n"
    ],
    [
      0.258346,
      "* About to connect() to prometheus.192.168.1.51.nip.io port 80 (#0)\r\n*   Trying 192.168.1.51...\r\n* Connected to prometheus.192.168.1.51.nip.io (192.168.1.51) port 80 (#0)\r\n> GET / HTTP/1.1\r\r\n> User-Agent: curl/7.29.0\r\r\n> Host: prometheus.192.168.1.51.nip.io\r\r\n> Accept: */*\r\r\n> \r\r\n"
    ],
    [
      0.002077,
      "< HTTP/1.1 401 Unauthorized\r\r\n< Server: nginx/1.13.12\r\r\n< Date: Wed, 12 Sep 2018 09:34:29 GMT\r\r\n< Content-Type: text/html\r\r\n< Content-Length: 196\r\r\n< Connection: keep-alive\r\r\n< WWW-Authenticate: Basic realm=\"Authentication Required\"\r\r\n< \r\r\n<html>\r\r\n<head><title>401 Authorization Required</title></head>\r\r\n<body bgcolor=\"white\">\r\r\n<center><h1>401 Authorization Required</h1></center>\r\r\n<hr><center>nginx/1.13.12</center>\r\r\n</body>\r\r\n</html>\r\r\n* Connection #0 to host prometheus.192.168.1.51.nip.io left intact\r\n\u001b]0;root@kube-ansible-1:~\u0007[root@kube-ansible-1 ~]# "
    ]
  ],
  "title": null,
  "command": null,
  "width": 140,
  "version": 1,
  "height": 22
}